<?xml version="1.0" encoding="UTF-8"?>
<svg width="284px" height="254px" viewBox="0 0 284 254" version="1.1" xmlns="http://www.w3.org/2000/svg" xmlns:xlink="http://www.w3.org/1999/xlink">
    <title>Pattern Copy 3</title>
    <defs>
        <rect id="path-1" x="0" y="0" width="284" height="304"></rect>
        <polygon id="path-3" points="0.0205973732 11.0910282 1.61778729 11.0910282 1.61778729 6.42499254 6.21697381 11.0910282 8.32543003 11.0910282 3.27897954 5.95007465 8.64450121 0.0180260125 6.60051759 0.0180260125 1.61778729 5.55434079 1.61778729 0.0180260125 0.0205973732 0.0180260125"></polygon>
        <path d="M0.226853261,18.3267721 L8.09269852,13.8286532 C8.22676955,13.7516583 8.3094412,13.6097792 8.3094412,13.4565348 L8.3094412,4.46011059 C8.3094412,4.30672646 8.39267716,4.16480073 8.52674819,4.08803879 L15.5461261,0.0736877307 C15.8354298,-0.0919000585 16.1969654,0.11518948 16.1969654,0.445759534 L16.1969654,17.9674163 C16.1969654,18.1208004 16.1142938,18.2625399 15.9801757,18.3394881 L0.660949955,27.100037 C0.371599185,27.2653919 0.00954627114,27.0585819 0.00954627114,26.7278721 L0.00954627114,18.6988439 C0.00954627114,18.5456461 0.0924060236,18.4037203 0.226853261,18.3267721 L0.226853261,18.3267721 Z" id="path-5"></path>
        <path d="M25.3822652,13.6170455 L17.51642,9.11887996 C17.382349,9.04193171 17.2166295,9.04193171 17.0825584,9.11887996 L8.11912711,14.244742 C7.98505608,14.3217368 7.90182012,14.4636625 7.90182012,14.6168603 L7.90182012,24.8687241 C7.90182012,25.0221082 7.98505608,25.1638477 8.11912711,25.2408425 L15.9849724,29.7391477 C16.1194196,29.8159097 16.2020913,29.9578354 16.2020913,30.1110332 L16.2020913,38.1396888 C16.2020913,38.4703985 15.8402264,38.6772086 15.5509227,38.5118537 L0.231649909,29.7513048 C0.0975318539,29.6743566 0.0148602053,29.5326171 0.0148602053,29.379233 L0.0148602053,10.1063514 C0.0148602053,9.95315363 0.0975318539,9.81122789 0.231649909,9.73423306 L17.0825584,0.0979087294 C17.2166295,0.0209139008 17.382349,0.0209139008 17.51642,0.0979087294 L32.8356928,8.85817817 C33.1249965,9.02371938 33.1249965,9.43729293 32.8356928,9.60269441 L25.8163149,13.6170455 C25.6816796,13.6939937 25.5163833,13.6939937 25.3822652,13.6170455 Z" id="path-7"></path>
        <polygon id="path-9" points="0.0154480299 8.31827115 1.21334047 8.31827115 1.21334047 4.8187444 4.66273036 8.31827115 6.24407252 8.31827115 2.45923466 4.46255598 6.48337591 0.0135195094 4.95038819 0.0135195094 1.21334047 4.16575559 1.21334047 0.0135195094 0.0154480299 0.0135195094"></polygon>
        <path d="M0.170139946,13.7450791 L6.06952389,10.3714899 C6.17007716,10.3137437 6.2320809,10.2073344 6.2320809,10.0924011 L6.2320809,3.34508295 C6.2320809,3.23004485 6.29450787,3.12360054 6.39506114,3.06602909 L11.6595945,0.055265798 C11.8765724,-0.0689250439 12.1477241,0.0863921103 12.1477241,0.33431965 L12.1477241,13.4755622 C12.1477241,13.5906003 12.0857203,13.6969049 11.9851318,13.7546161 L0.495712466,20.3250278 C0.278699389,20.4490439 0.00715970335,20.2939364 0.00715970335,20.045904 L0.00715970335,14.0241329 C0.00715970335,13.9092346 0.0693045177,13.8027903 0.170139946,13.7450791 L0.170139946,13.7450791 Z" id="path-11"></path>
        <path d="M19.0366989,10.2127841 L13.137315,6.83915997 C13.0367617,6.78144878 12.9124721,6.78144878 12.8119188,6.83915997 L6.08934534,10.6835565 C5.98879206,10.7413026 5.92636509,10.8477469 5.92636509,10.9626453 L5.92636509,18.6515431 C5.92636509,18.7665812 5.98879206,18.8728857 6.08934534,18.9306319 L11.9887293,22.3043608 C12.0895647,22.3619322 12.1515684,22.4683765 12.1515684,22.5832749 L12.1515684,28.6047666 C12.1515684,28.8527989 11.8801698,29.0079065 11.663192,28.8838903 L0.173737432,22.3134786 C0.0731488904,22.2557674 0.011145154,22.1494629 0.011145154,22.0344248 L0.011145154,7.57976358 C0.011145154,7.46486522 0.0731488904,7.35842092 0.173737432,7.3006748 L12.8119188,0.073431547 C12.9124721,0.0156854256 13.0367617,0.0156854256 13.137315,0.073431547 L24.6267696,6.64363363 C24.8437474,6.76778954 24.8437474,7.0779697 24.6267696,7.20202081 L19.3622362,10.2127841 C19.2612597,10.2704953 19.1372875,10.2704953 19.0366989,10.2127841 Z" id="path-13"></path>
        <polygon id="path-15" points="0.0154480299 8.31827115 1.21334047 8.31827115 1.21334047 4.8187444 4.66273036 8.31827115 6.24407252 8.31827115 2.45923466 4.46255598 6.48337591 0.0135195094 4.95038819 0.0135195094 1.21334047 4.16575559 1.21334047 0.0135195094 0.0154480299 0.0135195094"></polygon>
        <path d="M0.170139946,13.7450791 L6.06952389,10.3714899 C6.17007716,10.3137437 6.2320809,10.2073344 6.2320809,10.0924011 L6.2320809,3.34508295 C6.2320809,3.23004485 6.29450787,3.12360054 6.39506114,3.06602909 L11.6595945,0.055265798 C11.8765724,-0.0689250439 12.1477241,0.0863921103 12.1477241,0.33431965 L12.1477241,13.4755622 C12.1477241,13.5906003 12.0857203,13.6969049 11.9851318,13.7546161 L0.495712466,20.3250278 C0.278699389,20.4490439 0.00715970335,20.2939364 0.00715970335,20.045904 L0.00715970335,14.0241329 C0.00715970335,13.9092346 0.0693045177,13.8027903 0.170139946,13.7450791 L0.170139946,13.7450791 Z" id="path-17"></path>
        <path d="M19.0366989,10.2127841 L13.137315,6.83915997 C13.0367617,6.78144878 12.9124721,6.78144878 12.8119188,6.83915997 L6.08934534,10.6835565 C5.98879206,10.7413026 5.92636509,10.8477469 5.92636509,10.9626453 L5.92636509,18.6515431 C5.92636509,18.7665812 5.98879206,18.8728857 6.08934534,18.9306319 L11.9887293,22.3043608 C12.0895647,22.3619322 12.1515684,22.4683765 12.1515684,22.5832749 L12.1515684,28.6047666 C12.1515684,28.8527989 11.8801698,29.0079065 11.663192,28.8838903 L0.173737432,22.3134786 C0.0731488904,22.2557674 0.011145154,22.1494629 0.011145154,22.0344248 L0.011145154,7.57976358 C0.011145154,7.46486522 0.0731488904,7.35842092 0.173737432,7.3006748 L12.8119188,0.073431547 C12.9124721,0.0156854256 13.0367617,0.0156854256 13.137315,0.073431547 L24.6267696,6.64363363 C24.8437474,6.76778954 24.8437474,7.0779697 24.6267696,7.20202081 L19.3622362,10.2127841 C19.2612597,10.2704953 19.1372875,10.2704953 19.0366989,10.2127841 Z" id="path-19"></path>
        <polygon id="path-21" points="0.0389061494 21.0729536 3.05582043 21.0729536 3.05582043 12.2074858 11.7431727 21.0729536 15.7258123 21.0729536 6.19362803 11.3051418 16.3285023 0.0342494237 12.4676443 0.0342494237 3.05582043 10.5532475 3.05582043 0.0342494237 0.0389061494 0.0342494237"></polygon>
        <path d="M0.428500604,34.820867 L15.2862083,26.274441 C15.5394536,26.1281508 15.6956112,25.8585804 15.6956112,25.5674161 L15.6956112,8.47421013 C15.6956112,8.18278028 15.8528346,7.91312138 16.1060799,7.7672737 L29.3649048,0.140006688 C29.9113674,-0.174610111 30.594268,0.218860013 30.594268,0.846943114 L30.594268,34.138091 C30.594268,34.4295208 30.4381105,34.6988257 30.1847764,34.8450274 L1.24846103,51.4900703 C0.701909571,51.8042446 0.0180318455,51.4113055 0.0180318455,50.7829569 L0.0180318455,35.5278034 C0.0180318455,35.2367275 0.174544711,34.9670686 0.428500604,34.820867 L0.428500604,34.820867 Z" id="path-23"></path>
        <path d="M47.9442788,25.8723864 L33.0865711,17.3258719 C32.8333258,17.1796702 32.5203001,17.1796702 32.2670548,17.3258719 L15.336129,27.0650097 C15.0828837,27.2112999 14.9256602,27.4809588 14.9256602,27.7720347 L14.9256602,47.2505758 C14.9256602,47.5420056 15.0828837,47.8113105 15.336129,47.9576007 L30.1938367,56.5043807 C30.4477926,56.6502284 30.6039502,56.9198873 30.6039502,57.2109631 L30.6039502,72.4654086 C30.6039502,73.0937572 29.9204277,73.4866964 29.3739651,73.1725221 L0.43756094,56.5274791 C0.184226835,56.3812775 0.0280692767,56.1119726 0.0280692767,55.8205427 L0.0280692767,19.2020677 C0.0280692767,18.9109919 0.184226835,18.641333 0.43756094,18.4950428 L32.2670548,0.186026586 C32.5203001,0.0397364115 32.8333258,0.0397364115 33.0865711,0.186026586 L62.0229753,16.8305385 C62.5694379,17.1450668 62.5694379,17.9308566 62.0229753,18.2451194 L48.7641504,25.8723864 C48.5098392,26.0185881 48.1976129,26.0185881 47.9442788,25.8723864 Z" id="path-25"></path>
        <polygon id="path-27" points="0.0389061494 21.0729536 3.05582043 21.0729536 3.05582043 12.2074858 11.7431727 21.0729536 15.7258123 21.0729536 6.19362803 11.3051418 16.3285023 0.0342494237 12.4676443 0.0342494237 3.05582043 10.5532475 3.05582043 0.0342494237 0.0389061494 0.0342494237"></polygon>
        <path d="M0.428500604,34.820867 L15.2862083,26.274441 C15.5394536,26.1281508 15.6956112,25.8585804 15.6956112,25.5674161 L15.6956112,8.47421013 C15.6956112,8.18278028 15.8528346,7.91312138 16.1060799,7.7672737 L29.3649048,0.140006688 C29.9113674,-0.174610111 30.594268,0.218860013 30.594268,0.846943114 L30.594268,34.138091 C30.594268,34.4295208 30.4381105,34.6988257 30.1847764,34.8450274 L1.24846103,51.4900703 C0.701909571,51.8042446 0.0180318455,51.4113055 0.0180318455,50.7829569 L0.0180318455,35.5278034 C0.0180318455,35.2367275 0.174544711,34.9670686 0.428500604,34.820867 L0.428500604,34.820867 Z" id="path-29"></path>
        <path d="M47.9442788,25.8723864 L33.0865711,17.3258719 C32.8333258,17.1796702 32.5203001,17.1796702 32.2670548,17.3258719 L15.336129,27.0650097 C15.0828837,27.2112999 14.9256602,27.4809588 14.9256602,27.7720347 L14.9256602,47.2505758 C14.9256602,47.5420056 15.0828837,47.8113105 15.336129,47.9576007 L30.1938367,56.5043807 C30.4477926,56.6502284 30.6039502,56.9198873 30.6039502,57.2109631 L30.6039502,72.4654086 C30.6039502,73.0937572 29.9204277,73.4866964 29.3739651,73.1725221 L0.43756094,56.5274791 C0.184226835,56.3812775 0.0280692767,56.1119726 0.0280692767,55.8205427 L0.0280692767,19.2020677 C0.0280692767,18.9109919 0.184226835,18.641333 0.43756094,18.4950428 L32.2670548,0.186026586 C32.5203001,0.0397364115 32.8333258,0.0397364115 33.0865711,0.186026586 L62.0229753,16.8305385 C62.5694379,17.1450668 62.5694379,17.9308566 62.0229753,18.2451194 L48.7641504,25.8723864 C48.5098392,26.0185881 48.1976129,26.0185881 47.9442788,25.8723864 Z" id="path-31"></path>
        <polygon id="path-33" points="0.0154480299 8.31827115 1.21334047 8.31827115 1.21334047 4.8187444 4.66273036 8.31827115 6.24407252 8.31827115 2.45923466 4.46255598 6.48337591 0.0135195094 4.95038819 0.0135195094 1.21334047 4.16575559 1.21334047 0.0135195094 0.0154480299 0.0135195094"></polygon>
        <path d="M0.170139946,13.7450791 L6.06952389,10.3714899 C6.17007716,10.3137437 6.2320809,10.2073344 6.2320809,10.0924011 L6.2320809,3.34508295 C6.2320809,3.23004485 6.29450787,3.12360054 6.39506114,3.06602909 L11.6595945,0.055265798 C11.8765724,-0.0689250439 12.1477241,0.0863921103 12.1477241,0.33431965 L12.1477241,13.4755622 C12.1477241,13.5906003 12.0857203,13.6969049 11.9851318,13.7546161 L0.495712466,20.3250278 C0.278699389,20.4490439 0.00715970335,20.2939364 0.00715970335,20.045904 L0.00715970335,14.0241329 C0.00715970335,13.9092346 0.0693045177,13.8027903 0.170139946,13.7450791 L0.170139946,13.7450791 Z" id="path-35"></path>
        <path d="M19.0366989,10.2127841 L13.137315,6.83915997 C13.0367617,6.78144878 12.9124721,6.78144878 12.8119188,6.83915997 L6.08934534,10.6835565 C5.98879206,10.7413026 5.92636509,10.8477469 5.92636509,10.9626453 L5.92636509,18.6515431 C5.92636509,18.7665812 5.98879206,18.8728857 6.08934534,18.9306319 L11.9887293,22.3043608 C12.0895647,22.3619322 12.1515684,22.4683765 12.1515684,22.5832749 L12.1515684,28.6047666 C12.1515684,28.8527989 11.8801698,29.0079065 11.663192,28.8838903 L0.173737432,22.3134786 C0.0731488904,22.2557674 0.011145154,22.1494629 0.011145154,22.0344248 L0.011145154,7.57976358 C0.011145154,7.46486522 0.0731488904,7.35842092 0.173737432,7.3006748 L12.8119188,0.073431547 C12.9124721,0.0156854256 13.0367617,0.0156854256 13.137315,0.073431547 L24.6267696,6.64363363 C24.8437474,6.76778954 24.8437474,7.0779697 24.6267696,7.20202081 L19.3622362,10.2127841 C19.2612597,10.2704953 19.1372875,10.2704953 19.0366989,10.2127841 Z" id="path-37"></path>
        <polygon id="path-39" points="0.0154480299 8.31827115 1.21334047 8.31827115 1.21334047 4.8187444 4.66273036 8.31827115 6.24407252 8.31827115 2.45923466 4.46255598 6.48337591 0.0135195094 4.95038819 0.0135195094 1.21334047 4.16575559 1.21334047 0.0135195094 0.0154480299 0.0135195094"></polygon>
        <path d="M0.170139946,13.7450791 L6.06952389,10.3714899 C6.17007716,10.3137437 6.2320809,10.2073344 6.2320809,10.0924011 L6.2320809,3.34508295 C6.2320809,3.23004485 6.29450787,3.12360054 6.39506114,3.06602909 L11.6595945,0.055265798 C11.8765724,-0.0689250439 12.1477241,0.0863921103 12.1477241,0.33431965 L12.1477241,13.4755622 C12.1477241,13.5906003 12.0857203,13.6969049 11.9851318,13.7546161 L0.495712466,20.3250278 C0.278699389,20.4490439 0.00715970335,20.2939364 0.00715970335,20.045904 L0.00715970335,14.0241329 C0.00715970335,13.9092346 0.0693045177,13.8027903 0.170139946,13.7450791 L0.170139946,13.7450791 Z" id="path-41"></path>
        <path d="M19.0366989,10.2127841 L13.137315,6.83915997 C13.0367617,6.78144878 12.9124721,6.78144878 12.8119188,6.83915997 L6.08934534,10.6835565 C5.98879206,10.7413026 5.92636509,10.8477469 5.92636509,10.9626453 L5.92636509,18.6515431 C5.92636509,18.7665812 5.98879206,18.8728857 6.08934534,18.9306319 L11.9887293,22.3043608 C12.0895647,22.3619322 12.1515684,22.4683765 12.1515684,22.5832749 L12.1515684,28.6047666 C12.1515684,28.8527989 11.8801698,29.0079065 11.663192,28.8838903 L0.173737432,22.3134786 C0.0731488904,22.2557674 0.011145154,22.1494629 0.011145154,22.0344248 L0.011145154,7.57976358 C0.011145154,7.46486522 0.0731488904,7.35842092 0.173737432,7.3006748 L12.8119188,0.073431547 C12.9124721,0.0156854256 13.0367617,0.0156854256 13.137315,0.073431547 L24.6267696,6.64363363 C24.8437474,6.76778954 24.8437474,7.0779697 24.6267696,7.20202081 L19.3622362,10.2127841 C19.2612597,10.2704953 19.1372875,10.2704953 19.0366989,10.2127841 Z" id="path-43"></path>
    </defs>
    <g id="Page-1" stroke="none" stroke-width="1" fill="none" fill-rule="evenodd">
        <g id="Techniek-Copy-4" transform="translate(-852.000000, -200.000000)">
            <g id="Group-7" transform="translate(0.000000, 200.000000)">
                <g id="Group" transform="translate(852.000000, -50.000000)">
                    <mask id="mask-2" fill="white">
                        <use xlink:href="#path-1"></use>
                    </mask>
                    <g id="Rectangle"></g>
                    <path d="M319.703869,192.744472 L320.483666,195.654715 L290.649245,196 L292.326994,192.925342 L319.703869,192.744472 Z M338.954764,170.344583 L341.707189,171.570042 L323.200117,194.973037 L321.8665,191.734236 L338.954764,170.344583 Z M273.178792,170.663242 L290.176205,192.12516 L288.362994,194.531373 L269.723002,171.234107 L273.178792,170.663242 Z M305.780616,132 L328.395203,143.585427 L334,168.857276 L318.206609,189 L293.286798,189 L277,168.857276 L281.928153,144.331143 L305.780616,132 Z M305.700588,135.508671 L284.738516,146.347949 L280.510854,168.105722 L294.958307,186.069991 L316.918941,186.186576 L330.742221,168.372393 L325.684195,145.903098 L305.700588,135.508671 Z M336.455079,139.624617 L343.502799,168.616711 L340.129532,167.673611 L333.794842,141.03909 L336.455079,139.624617 Z M275.93474,138.654815 L278.470399,141.071176 L271.559448,167.562019 L268.546544,167.562019 L275.93474,138.654815 Z M304.578965,123.156327 L304.418856,126.655289 L279.891972,138.819085 L277.915328,136.545216 L304.578965,123.156327 Z M307.720269,123 L334.2246,136.701544 L331.299771,138.628651 L307.042512,125.935684 L307.720269,123 Z" id="Combined-Shape-Copy-10" fill="#FFFFFF" opacity="0.049999997" mask="url(#mask-2)"></path>
                    <path d="M197.145349,226.305342 L197.551271,227.820263 L182.021025,228 L182.894374,226.399493 L197.145349,226.305342 Z M207.166363,214.645126 L208.599133,215.283036 L198.965314,227.465416 L198.271103,225.779465 L207.166363,214.645126 Z M172.926816,214.811003 L181.774785,225.98296 L180.830921,227.235509 L171.127912,215.108165 L172.926816,214.811003 Z M190.64277,195 L202.148437,200.89434 L205,213.751948 L196.964766,224 L184.286266,224 L176,213.751948 L178.507306,201.273739 L190.64277,195 Z M190.602053,196.785113 L179.93714,202.299834 L177.786224,213.369578 L185.136682,222.509293 L196.309637,222.568609 L203.342534,213.505253 L200.769152,202.073506 L190.602053,196.785113 Z M205.865157,198.65391 L209.533833,213.745685 L207.777886,213.254756 L204.480377,199.390211 L205.865157,198.65391 Z M174.361419,198.149082 L175.681351,199.406914 L172.08387,213.196667 L170.515509,213.196667 L174.361419,198.149082 Z M189.272112,190.081376 L189.188767,191.902753 L176.421348,198.234592 L175.392411,197.050935 L189.272112,190.081376 Z M190.907311,190 L204.704086,197.13231 L203.181572,198.135462 L190.554506,191.528164 L190.907311,190 Z" id="Combined-Shape-Copy-11" fill="#FFFFFF" opacity="0.049999997" mask="url(#mask-2)"></path>
                    <path d="M35.7038687,192.744472 L36.4836659,195.654715 L6.6492453,196 L8.32699415,192.925342 L35.7038687,192.744472 Z M54.9547638,170.344583 L57.7071894,171.570042 L39.200117,194.973037 L37.8665001,191.734236 L54.9547638,170.344583 Z M-10.8212085,170.663242 L6.17620528,192.12516 L4.36299384,194.531373 L-14.2769977,171.234107 L-10.8212085,170.663242 Z M21.7806164,132 L44.3952035,143.585427 L50,168.857276 L34.2066089,189 L9.28679827,189 L-7,168.857276 L-2.07184733,144.331143 L21.7806164,132 Z M21.7005879,135.508671 L0.7385161,146.347949 L-3.48914642,168.105722 L10.9583067,186.069991 L32.9189413,186.186576 L46.7422213,168.372393 L41.6841954,145.903098 L21.7005879,135.508671 Z M52.4550791,139.624617 L59.5027987,168.616711 L56.1295322,167.673611 L49.794842,141.03909 L52.4550791,139.624617 Z M-8.06525978,138.654815 L-5.5296011,141.071176 L-12.4405515,167.562019 L-15.4534564,167.562019 L-8.06525978,138.654815 Z M20.578965,123.156327 L20.4188559,126.655289 L-4.1080282,138.819085 L-6.08467167,136.545216 L20.578965,123.156327 Z M23.7202685,123 L50.2245998,136.701544 L47.2997708,138.628651 L23.0425124,125.935684 L23.7202685,123 Z" id="Combined-Shape-Copy-9" fill="#FFFFFF" opacity="0.049999997" mask="url(#mask-2)"></path>
                    <g id="Group-5-Copy-3" opacity="0.049999997" mask="url(#mask-2)">
                        <g transform="translate(266.794643, 291.919661) rotate(-345.000000) translate(-266.794643, -291.919661) translate(245.794643, 270.919661)">
                            <path d="M12.6575918,5.87017788 L25.088957,6.36680534 C26.0934066,6.40693265 26.9761234,7.04478078 27.3295535,7.98585271 L31.7226111,19.6831667 C32.2080474,20.9757289 31.5537425,22.4170814 30.2611804,22.9025176 C29.9689901,23.0122529 29.6588349,23.0663036 29.3467494,23.0618751 L21.0140275,22.9436355 L21.0140275,22.9436355 L19.318401,18.8440162 C18.9638422,17.986778 18.1637603,17.3963485 17.2400907,17.3103037 L12.6750998,16.8850499 L12.6750998,16.8850499 L10.1782374,9.13479699 C9.75484942,7.8206022 10.4769911,6.41201309 11.7911858,5.98862515 C12.0707861,5.89854765 12.3640739,5.85845197 12.6575918,5.87017788 Z" id="Rectangle" fill="#FFFFFF" transform="translate(21.045751, 14.420572) rotate(-36.000000) translate(-21.045751, -14.420572) "></path>
                            <path d="M15.3878772,7.9744486 L28.8215883,8.14379679 C29.8523781,8.15679115 30.7695008,8.80116198 31.1311676,9.76650833 L35.8193378,22.2799806 C36.1084149,23.0515735 35.9987334,23.9160576 35.5261255,24.5910115 L27.9419742,35.4223022 L27.9419742,35.4223022 L23.316255,21.0903543 C22.9735079,20.0284152 21.9684841,19.3222088 20.8532314,19.3596461 L5.72727273,19.8674007 L5.72727273,19.8674007 L13.308484,9.04030889 C13.7827192,8.36303093 14.5611392,7.96402656 15.3878772,7.9744486 Z" id="Rectangle-Copy" fill="#9A9A9A" transform="translate(21.004223, 21.690046) rotate(-215.000000) translate(-21.004223, -21.690046) "></path>
                        </g>
                    </g>
                    <g id="Group-5-Copy-2" opacity="0.049999997" mask="url(#mask-2)">
                        <g transform="translate(72.794643, 234.919661)">
                            <path d="M13.5223967,6.41563243 L27.6362302,6.97947374 C28.6406798,7.01960105 29.5233966,7.65744918 29.8768267,8.59852111 L34.8665207,21.8844877 C35.351957,23.1770499 34.6976521,24.6184024 33.40509,25.1038386 C33.1128997,25.213574 32.8027445,25.2676246 32.490659,25.2631962 L23.0153634,25.1287436 L23.0153634,25.1287436 L21.1033451,20.5059407 C20.7487863,19.6487025 19.9487044,19.058273 19.0250348,18.9722281 L13.8822522,18.4931499 L13.8822522,18.4931499 L11.0430423,9.68025153 C10.6196543,8.36605675 11.3417959,6.95746764 12.6559907,6.5340797 C12.935591,6.44400219 13.2288787,6.40390652 13.5223967,6.41563243 Z" id="Rectangle" fill="#FFFFFF" transform="translate(23.050108, 15.793960) rotate(-36.000000) translate(-23.050108, -15.793960) "></path>
                            <path d="M16.7275411,8.73233343 L31.7293306,8.92144915 C32.7601204,8.9344435 33.677243,9.57881434 34.0389099,10.5441607 L39.2746876,24.5192846 C39.5637647,25.2908775 39.4540832,26.1553616 38.9814754,26.8303156 L30.6031146,38.7958547 L30.6031146,38.7958547 L25.481707,22.928107 C25.13896,21.8661678 24.1339362,21.1599614 23.0186834,21.1973987 L6.27272727,21.7595341 L6.27272727,21.7595341 L14.648148,9.79819371 C15.1223831,9.12091576 15.9008031,8.72191139 16.7275411,8.73233343 Z" id="Rectangle-Copy" fill="#9A9A9A" transform="translate(23.004625, 23.755765) rotate(-215.000000) translate(-23.004625, -23.755765) "></path>
                        </g>
                    </g>
                    <g id="Group-5" opacity="0.0700000003" mask="url(#mask-2)">
                        <g transform="translate(13.794643, 74.919661) rotate(-39.000000) translate(-13.794643, -74.919661) translate(-19.205357, 41.919661)">
                            <path d="M17.8464211,9.14290515 L40.3725964,10.0428157 C41.377046,10.0829431 42.2597628,10.7207912 42.613193,11.6618631 L50.5860686,32.8910929 C51.0715049,34.1836551 50.4172,35.6250075 49.1246379,36.1104438 C48.8324476,36.2201791 48.5222924,36.2742297 48.2102069,36.2698013 L33.0220432,36.0542844 L33.0220432,36.0542844 L30.0280656,28.8155629 C29.6735069,27.9583247 28.873425,27.3678952 27.9497554,27.2818503 L19.918014,26.5336499 L19.918014,26.5336499 L15.3670667,12.4075243 C14.9436788,11.0933295 15.6658204,9.68474036 16.9800152,9.26135243 C17.2596155,9.17127492 17.5529032,9.13117924 17.8464211,9.14290515 Z" id="Rectangle" fill="#FFFFFF" transform="translate(33.071894, 22.660898) rotate(-36.000000) translate(-33.071894, -22.660898) "></path>
                            <path d="M23.4258609,12.5217576 L46.2680419,12.8097109 C47.2988317,12.8227053 48.2159544,13.4670761 48.5776212,14.4324224 L56.5514366,35.7158047 C56.8405137,36.4873975 56.7308322,37.3518816 56.2582244,38.0268356 L43.9088166,55.6636177 L43.9088166,55.6636177 L36.3089673,32.1168701 C35.9662203,31.054931 34.9611965,30.3487246 33.8459437,30.3861619 L9,31.2202011 L9,31.2202011 L21.3464677,13.5876178 C21.8207029,12.9103399 22.5991228,12.5113355 23.4258609,12.5217576 Z" id="Rectangle-Copy" fill="#9A9A9A" transform="translate(33.006636, 34.084359) rotate(-215.000000) translate(-33.006636, -34.084359) "></path>
                        </g>
                    </g>
                    <g id="Group-5-Copy" opacity="0.0700000003" mask="url(#mask-2)">
                        <g transform="translate(297.794643, 74.919661) rotate(-39.000000) translate(-297.794643, -74.919661) translate(264.794643, 41.919661)">
                            <path d="M17.8464211,9.14290515 L40.3725964,10.0428157 C41.377046,10.0829431 42.2597628,10.7207912 42.613193,11.6618631 L50.5860686,32.8910929 C51.0715049,34.1836551 50.4172,35.6250075 49.1246379,36.1104438 C48.8324476,36.2201791 48.5222924,36.2742297 48.2102069,36.2698013 L33.0220432,36.0542844 L33.0220432,36.0542844 L30.0280656,28.8155629 C29.6735069,27.9583247 28.873425,27.3678952 27.9497554,27.2818503 L19.918014,26.5336499 L19.918014,26.5336499 L15.3670667,12.4075243 C14.9436788,11.0933295 15.6658204,9.68474036 16.9800152,9.26135243 C17.2596155,9.17127492 17.5529032,9.13117924 17.8464211,9.14290515 Z" id="Rectangle" fill="#FFFFFF" transform="translate(33.071894, 22.660898) rotate(-36.000000) translate(-33.071894, -22.660898) "></path>
                            <path d="M23.4258609,12.5217576 L46.2680419,12.8097109 C47.2988317,12.8227053 48.2159544,13.4670761 48.5776212,14.4324224 L56.5514366,35.7158047 C56.8405137,36.4873975 56.7308322,37.3518816 56.2582244,38.0268356 L43.9088166,55.6636177 L43.9088166,55.6636177 L36.3089673,32.1168701 C35.9662203,31.054931 34.9611965,30.3487246 33.8459437,30.3861619 L9,31.2202011 L9,31.2202011 L21.3464677,13.5876178 C21.8207029,12.9103399 22.5991228,12.5113355 23.4258609,12.5217576 Z" id="Rectangle-Copy" fill="#9A9A9A" transform="translate(33.006636, 34.084359) rotate(-215.000000) translate(-33.006636, -34.084359) "></path>
                        </g>
                    </g>
                    <path d="M147.267847,113.324224 L147.908776,115.716204 L123.387335,116 L124.766306,113.472883 L147.267847,113.324224 Z M163.090501,94.9133563 L165.352768,95.9205827 L150.141476,115.15592 L149.045352,112.493892 L163.090501,94.9133563 Z M109.028058,95.1752676 L122.998535,112.8152 L121.508224,114.792909 L106.187683,95.6444714 L109.028058,95.1752676 Z M135.731385,63 L154.378501,72.552896 L159,93.3910874 L145.977379,110 L125.429465,110 L112,93.3910874 L116.063564,73.1677842 L135.731385,63 Z M135.665397,65.8931148 L118.380882,74.8307651 L114.894914,92.7713851 L126.807727,107.584027 L144.915618,107.68016 L156.313761,92.9912718 L152.143108,74.4639578 L135.665397,65.8931148 Z M161.035965,69.6640689 L166.828612,93.4931874 L164.056064,92.7180362 L158.849469,70.8266496 L161.035965,69.6640689 Z M111.293221,68.8669712 L113.377324,70.8530215 L107.697091,92.6263167 L105.220731,92.6263167 L111.293221,68.8669712 Z M134.836419,56.1284881 L134.704823,59.0043468 L114.54574,69.0019873 L112.921102,67.1330546 L134.836419,56.1284881 Z M137.418313,56 L159.202695,67.2615427 L156.798726,68.8454662 L136.861253,58.4128912 L137.418313,56 Z" id="Combined-Shape" fill="#FFFFFF" opacity="0.049999997" mask="url(#mask-2)"></path>
                    <path d="M147.698642,187 L147.698642,222 L112.698642,222 L112.698642,187 L147.698642,187 Z M108.698642,187 L108.698642,222 L73.6986416,222 L73.6986416,187 L108.698642,187 Z M108.698642,148 L108.698642,183 L73.6986416,183 L73.6986416,148 L108.698642,148 Z M147.698642,148 L147.698642,183 L112.698642,183 L112.698642,148 L147.698642,148 Z" id="Combined-Shape" fill="#FFFFFF" opacity="0.0299999993" mask="url(#mask-2)" transform="translate(110.698642, 185.000000) rotate(-8.000000) translate(-110.698642, -185.000000) "></path>
                    <path d="M165.698642,27 L165.698642,40 L152.698642,40 L152.698642,27 L165.698642,27 Z M150.698642,27 L150.698642,40 L137.698642,40 L137.698642,27 L150.698642,27 Z M150.698642,12 L150.698642,25 L137.698642,25 L137.698642,12 L150.698642,12 Z M165.698642,12 L165.698642,25 L152.698642,25 L152.698642,12 L165.698642,12 Z" id="Combined-Shape-Copy" fill="#FFFFFF" opacity="0.049999997" mask="url(#mask-2)" transform="translate(151.698642, 26.000000) rotate(-360.000000) translate(-151.698642, -26.000000) "></path>
                    <path d="M265.698642,211 L265.698642,229 L247.698642,229 L247.698642,211 L265.698642,211 Z M244.698642,211 L244.698642,229 L226.698642,229 L226.698642,211 L244.698642,211 Z M244.698642,190 L244.698642,208 L226.698642,208 L226.698642,190 L244.698642,190 Z M265.698642,190 L265.698642,208 L247.698642,208 L247.698642,190 L265.698642,190 Z" id="Combined-Shape-Copy-4" fill="#FFFFFF" opacity="0.049999997" mask="url(#mask-2)" transform="translate(246.198642, 209.500000) rotate(-360.000000) translate(-246.198642, -209.500000) "></path>
                    <g id="google" opacity="0.0199999996" mask="url(#mask-2)" fill="#FFFFFF" fill-rule="nonzero">
                        <g transform="translate(50.510949, 43.000000)">
                            <polygon id="Path" points="26.0568453 24 36.1876923 29.8093923 36.1876923 32 25.1876923 25.6947514"></polygon>
                            <polygon id="Path" points="15.1876923 24.7539696 3.88377627 32 3.18769231 30.0595019 14.1977363 23"></polygon>
                            <polygon id="Path" points="19.1876923 2 21.1876923 2 21.1876923 15 19.194965 15"></polygon>
                            <path d="M19.7057995,0 L0.187692308,11 L0.187692308,33 L19.7057995,44 L39.1876923,33 L39.1876923,11 L19.7057995,0 Z M35.0091209,30.55525 L19.7057995,39.10775 L4.36626374,30.55525 L4.36626374,13.4475 L19.7057995,4.895 L35.0091209,13.44475 L35.0091209,30.5525 L35.0091209,30.55525 Z" id="Shape"></path>
                            <polygon id="Path" points="20.1891072 21 29.1876923 15.9993195 20.1891072 11 11.1876923 15.9993195"></polygon>
                            <polygon id="Path" points="19.1876923 22.9959161 10.1876923 18 10.1876923 28 19.1833184 33"></polygon>
                            <polygon id="Path" points="21.1876923 22.9986387 21.1876923 33 30.1876923 28 30.1876923 18"></polygon>
                        </g>
                    </g>
                    <g id="google-copy-2" opacity="0.049999997" mask="url(#mask-2)" fill="#FFFFFF" fill-rule="nonzero">
                        <g transform="translate(240.510949, 98.000000)">
                            <polygon id="Path" points="19.8198036 19 27.1876923 23.3570442 27.1876923 25 19.1876923 20.2710635"></polygon>
                            <polygon id="Path" points="11.1876923 19.3641986 2.70975528 25 2.18769231 23.4907237 10.4452253 18"></polygon>
                            <polygon id="Path" points="14.1876923 2 16.1876923 2 16.1876923 12 14.194965 12"></polygon>
                            <path d="M14.7011566,0 L0.187692308,8.5 L0.187692308,25.5 L14.7011566,34 L29.1876923,25.5 L29.1876923,8.5 L14.7011566,0 Z M26.0805495,23.610875 L14.7011566,30.219625 L3.29483516,23.610875 L3.29483516,10.39125 L14.7011566,3.7825 L26.0805495,10.389125 L26.0805495,23.60875 L26.0805495,23.610875 Z" id="Shape"></path>
                            <polygon id="Path" points="15.1887928 16 22.1876923 11.9994556 15.1887928 8 8.18769231 11.9994556"></polygon>
                            <polygon id="Path" points="14.1876923 17.9967329 7.18769231 14 7.18769231 22 14.1842904 26"></polygon>
                            <polygon id="Path" points="16.1876923 17.998911 16.1876923 26 23.1876923 22 23.1876923 14"></polygon>
                        </g>
                    </g>
                    <g id="google-copy-3" opacity="0.049999997" mask="url(#mask-2)" fill="#FFFFFF" fill-rule="nonzero">
                        <g transform="translate(145.510949, 288.000000) rotate(-11.000000) translate(-145.510949, -288.000000) translate(130.510949, 271.000000)">
                            <polygon id="Path" points="19.8198036 19 27.1876923 23.3570442 27.1876923 25 19.1876923 20.2710635"></polygon>
                            <polygon id="Path" points="11.1876923 19.3641986 2.70975528 25 2.18769231 23.4907237 10.4452253 18"></polygon>
                            <polygon id="Path" points="14.1876923 2 16.1876923 2 16.1876923 12 14.194965 12"></polygon>
                            <path d="M14.7011566,0 L0.187692308,8.5 L0.187692308,25.5 L14.7011566,34 L29.1876923,25.5 L29.1876923,8.5 L14.7011566,0 Z M26.0805495,23.610875 L14.7011566,30.219625 L3.29483516,23.610875 L3.29483516,10.39125 L14.7011566,3.7825 L26.0805495,10.389125 L26.0805495,23.60875 L26.0805495,23.610875 Z" id="Shape"></path>
                            <polygon id="Path" points="15.1887928 16 22.1876923 11.9994556 15.1887928 8 8.18769231 11.9994556"></polygon>
                            <polygon id="Path" points="14.1876923 17.9967329 7.18769231 14 7.18769231 22 14.1842904 26"></polygon>
                            <polygon id="Path" points="16.1876923 17.998911 16.1876923 26 23.1876923 22 23.1876923 14"></polygon>
                        </g>
                    </g>
                    <g id="google-copy" opacity="0.0199999996" mask="url(#mask-2)" fill="#FFFFFF" fill-rule="nonzero">
                        <g transform="translate(177.238222, 240.000000)">
                            <polygon id="Path" points="43.1050144 39 58.761778 48.4402624 58.761778 52 41.761778 41.753971"></polygon>
                            <polygon id="Path" points="24.761778 39.9232826 6.8639109 52 5.76177796 48.7658365 23.1943476 37"></polygon>
                            <polygon id="Path" points="32.761778 3 35.761778 3 35.761778 24 32.7726871 24"></polygon>
                            <path d="M32.7914922,-9.09494702e-13 L0.76177796,17.75 L0.76177796,53.25 L32.7914922,71 L64.761778,53.25 L64.761778,17.75 L32.7914922,-9.09494702e-13 Z M57.9046351,49.3050625 L32.7914922,63.1056875 L7.61892082,49.3050625 L7.61892082,21.699375 L32.7914922,7.89875 L57.9046351,21.6949375 L57.9046351,49.300625 L57.9046351,49.3050625 Z" id="Shape"></path>
                            <polygon id="Path" points="34.2640575 35 48.761778 26.9989111 34.2640575 19 19.761778 26.9989111"></polygon>
                            <polygon id="Path" points="32.761778 35.9934658 17.761778 28 17.761778 44 32.7544881 52"></polygon>
                            <polygon id="Path" points="34.761778 35.9978219 34.761778 52 49.761778 44 49.761778 28"></polygon>
                        </g>
                    </g>
                    <path d="M196.387642,65 L196.388297,70.4285714 C196.388297,71.4829332 197.204175,72.3467366 198.239034,72.4230857 L198.388297,72.4285714 L233.008986,72.4285714 C234.063348,72.4285714 234.927152,71.6126936 235.003501,70.5778338 L235.008986,70.4285714 L235.008642,65 L250.698642,65 L250.698642,84 C250.698642,85.6568542 249.355496,87 247.698642,87 L183.698642,87 C182.041787,87 180.698642,85.6568542 180.698642,84 L180.698642,65 L196.387642,65 Z M250.698642,46 L250.698642,60 L235.008642,60 L235.008642,46 L250.698642,46 Z M247.698642,19 C249.355496,19 250.698642,20.3431458 250.698642,22 L250.698642,41 L235.008642,41 L235.008986,35.5714286 C235.008986,34.4668591 234.113556,33.5714286 233.008986,33.5714286 L198.388297,33.5714286 C197.333935,33.5714286 196.470132,34.3873064 196.393783,35.4221662 L196.388297,35.5714286 L196.387642,41 L180.698642,41 L180.698642,22 C180.698642,20.3431458 182.041787,19 183.698642,19 L247.698642,19 Z M180.698642,46 L196.387642,46 L196.387642,60 L180.698642,60 L180.698642,46 Z" id="Combined-Shape" fill="#FFFFFF" opacity="0.0299999993" mask="url(#mask-2)"></path>
                    <path d="M28.4226416,29 L28.4227796,30.5714286 C28.4227796,31.6257904 29.2386573,32.4895937 30.2735172,32.5659428 L30.4227796,32.5714286 L42.9745037,32.5714286 C44.0288655,32.5714286 44.8926688,31.7555508 44.969018,30.7206909 L44.9745037,30.5714286 L44.9736416,29 L51.6986416,29 L51.6986416,36 C51.6986416,37.6568542 50.3554959,39 48.6986416,39 L24.6986416,39 C23.0417874,39 21.6986416,37.6568542 21.6986416,36 L21.6986416,29 L28.4226416,29 Z M51.6986416,21 L51.6986416,27 L44.9736416,27 L44.9736416,21 L51.6986416,21 Z M48.6986416,9 C50.3554959,9 51.6986416,10.3431458 51.6986416,12 L51.6986416,19 L44.9736416,19 L44.9745037,17.4285714 C44.9745037,16.3240019 44.0790732,15.4285714 42.9745037,15.4285714 L30.4227796,15.4285714 C29.3684178,15.4285714 28.5046144,16.2444492 28.4282653,17.2793091 L28.4227796,17.4285714 L28.4226416,19 L21.6986416,19 L21.6986416,12 C21.6986416,10.3431458 23.0417874,9 24.6986416,9 L48.6986416,9 Z M21.6986416,21 L28.4226416,21 L28.4226416,27 L21.6986416,27 L21.6986416,21 Z" id="Combined-Shape-Copy-2" fill="#FFFFFF" opacity="0.049999997" mask="url(#mask-2)"></path>
                    <path d="M255.698642,159.84 L255.698642,171 C255.698642,172.656854 254.355496,174 252.698642,174 L234.698642,174 C233.041787,174 231.698642,172.656854 231.698642,171 L231.698642,166.159 L237.077642,166.159 L237.077952,166.857143 C237.077952,167.911505 237.89383,168.775308 238.92869,168.851657 L239.077952,168.857143 L248.319331,168.857143 C249.373693,168.857143 250.237496,168.041265 250.313846,167.006405 L250.319331,166.857143 L250.318642,166.159 L255.564292,166.159422 L255.564292,164.159422 L250.318642,164.159 L250.318642,159.84 L255.698642,159.84 Z M252.698642,150 C254.355496,150 255.698642,151.343146 255.698642,153 L255.698642,157.84 L250.318642,157.84 L250.319331,157.142857 C250.319331,156.038288 249.423901,155.142857 248.319331,155.142857 L239.077952,155.142857 C238.02359,155.142857 237.159787,155.958735 237.083438,156.993595 L237.077952,157.142857 L237.077642,157.84 L231.832991,157.840578 L231.832991,159.840578 L237.077642,159.84 L237.077642,164.159 L231.698642,164.159 L231.698642,153 C231.698642,151.343146 233.041787,150 234.698642,150 L252.698642,150 Z" id="Combined-Shape-Copy-5" fill="#FFFFFF" opacity="0.0700000003" mask="url(#mask-2)" transform="translate(243.698642, 162.000000) rotate(16.000000) translate(-243.698642, -162.000000) "></path>
                    <path d="M131.422642,248 L131.42278,249.571429 C131.42278,250.62579 132.238657,251.489594 133.273517,251.565943 L133.42278,251.571429 L145.974504,251.571429 C147.028865,251.571429 147.892669,250.755551 147.969018,249.720691 L147.974504,249.571429 L147.973642,248 L154.698642,248 L154.698642,255 C154.698642,256.656854 153.355496,258 151.698642,258 L127.698642,258 C126.041787,258 124.698642,256.656854 124.698642,255 L124.698642,248 L131.422642,248 Z M154.698642,240 L154.698642,246 L147.973642,246 L147.973642,240 L154.698642,240 Z M151.698642,228 C153.355496,228 154.698642,229.343146 154.698642,231 L154.698642,238 L147.973642,238 L147.974504,236.428571 C147.974504,235.324002 147.079073,234.428571 145.974504,234.428571 L133.42278,234.428571 C132.368418,234.428571 131.504614,235.244449 131.428265,236.279309 L131.42278,236.428571 L131.422642,238 L124.698642,238 L124.698642,231 C124.698642,229.343146 126.041787,228 127.698642,228 L151.698642,228 Z M124.698642,240 L131.422642,240 L131.422642,246 L124.698642,246 L124.698642,240 Z" id="Combined-Shape-Copy-3" fill="#FFFFFF" opacity="0.049999997" mask="url(#mask-2)"></path>
                    <g id="red-hat-openshift-vector-logo" opacity="0.049999997" mask="url(#mask-2)" fill-rule="nonzero">
                        <g transform="translate(156.698642, 106.000000)">
                            <path d="M19.6967509,29 L8,32.9026549 C8.1732852,34.6150442 8.4765343,36.3274336 8.90974729,38 L20,34.2964602 C19.6534296,32.5442478 19.566787,30.7920354 19.6967509,29" id="Path" fill="#FFFFFF"></path>
                            <path d="M70,16.9170732 C69.1517857,15.204878 68.1696429,13.5365854 67.0535714,12 L55,16.302439 C56.3839286,17.7073171 57.5892857,19.2878049 58.5267857,21 L70,16.9170732 Z" id="Path" fill="#FFFFFF"></path>
                            <path d="M45.7576657,12.9629705 C47.9958533,14.0250341 50.0682493,15.4547352 51.8090619,17.211225 L63,13.2080621 C52.762364,-0.96640243 32.784467,-4.23429051 18.4020392,5.85531393 C9.24204906,12.2685443 4.22685086,22.9708777 5.09725716,34 L16.2467474,29.9559885 C17.0757057,18.7226232 27.0232063,10.2669628 38.462832,11.0839349 C40.991155,11.2881779 43.4365822,11.9417555 45.7576657,12.9629705" id="Path" fill="#FFFFFF"></path>
                            <path d="M10.529563,37 L0,40.940678 C0.98714653,44.9237288 2.67352185,48.6525424 4.93573265,52 L16,47.8474576 C13.2030848,44.8813559 11.311054,41.1101695 10.529563,37" id="Path" fill="#FFFFFF"></path>
                            <path d="M56.7700229,33.9713903 C56.6040246,36.4279203 55.9400314,38.8435082 54.902542,41.0543852 C50.0470915,51.3308693 37.6802176,55.7526234 27.2638239,51.003332 C24.9813472,49.9388356 22.9478679,48.5058597 21.2048857,46.7453465 L10,50.7986211 C13.1954674,55.2203752 17.4699238,58.7414016 22.449873,61.034163 C38.4687096,68.4037532 57.5170153,61.5664112 65.0284387,45.7627345 C67.352415,40.8496744 68.3484048,35.4043661 67.8919095,30 L56.7700229,33.9713903 Z" id="Path" fill="#FFFFFF"></path>
                            <path d="M60.0240964,20 L50,23.968 C51.8795181,27.6373333 52.7409639,31.8186667 52.4668675,36 L63,31.8186667 C62.686747,27.7226667 61.7078313,23.712 60.0240964,20" id="Path" fill="#FFFFFF"></path>
                            <path d="M19.9555556,31.8120805 C19.9111111,31.2080537 19.9555556,30.6040268 20,30 L8,33.2885906 C8.04444444,33.8590604 8.17777778,34.4295302 8.26666667,35 L19.9555556,31.8120805 Z" id="Path" fill="#929292"></path>
                            <path d="M69,13.5073529 C68.6363636,12.9926471 68.3131313,12.5147059 67.9090909,12 L57,15.6029412 C57.4848485,16.0441176 57.9292929,16.5220588 58.3333333,17 L69,13.5073529 Z" id="Path" fill="#929292"></path>
                            <path d="M10,50.4890017 C10.8716225,51.715736 11.8262567,52.9001692 12.8639026,54 L25.0251124,49.4737733 C23.613914,48.5854484 22.3272331,47.5279188 21.1650697,46.3434856 L10,50.4890017 Z M67.9006401,29 L56.7355705,33.1455161 C56.611053,34.7952623 56.2790063,36.4450085 55.7809363,38.0101523 L67.942146,33.4839255 C68.0251576,31.9610829 68.0251576,30.4382403 67.9006401,29" id="Shape" fill="#929292"></path>
                        </g>
                    </g>
                    <g id="red-hat-openshift-vector-logo-copy" opacity="0.049999997" mask="url(#mask-2)" fill-rule="nonzero">
                        <g transform="translate(94.698642, 9.000000) rotate(-315.000000) translate(-94.698642, -9.000000) translate(64.698642, -19.000000)">
                            <path d="M16.7472924,26 L7,29.4690265 C7.14440433,30.9911504 7.39711191,32.5132743 7.75812274,34 L17,30.7079646 C16.7111913,29.1504425 16.6389892,27.5929204 16.7472924,26" id="Path" fill="#FFFFFF"></path>
                            <path d="M60,14.3707317 C59.264881,12.8487805 58.4136905,11.3658537 57.4464286,10 L47,13.8243902 C48.1994048,15.0731707 49.2440476,16.4780488 50.0565476,18 L60,14.3707317 Z" id="Path" fill="#FFFFFF"></path>
                            <path d="M39.1359187,11.4379151 C41.0653908,12.3750301 42.851939,13.636531 44.3526395,15.186375 L54,11.6541724 C45.1744517,-0.852708026 27.9521268,-3.73613868 15.553482,5.16645347 C7.65693884,10.8251861 3.33349212,20.2684215 4.08384238,30 L13.6954719,26.4317546 C14.4100912,16.5199617 22.9855227,9.05908486 32.8472689,9.77994252 C35.0268578,9.96015694 37.1349847,10.5368431 39.1359187,11.4379151" id="Path" fill="#FFFFFF"></path>
                            <path d="M8.55526992,33 L0,36.4152542 C0.802056555,39.8672316 2.1722365,43.0988701 4.01028278,46 L13,42.4011299 C10.7275064,39.8305085 9.19023136,36.5621469 8.55526992,33" id="Path" fill="#FFFFFF"></path>
                            <path d="M49.3189853,29.5041679 C49.1758833,31.6716944 48.6034753,33.8030955 47.7090879,35.7538693 C43.5233547,44.8213553 32.8622566,48.722903 23.8826068,44.5323517 C21.9149545,43.5930902 20.1619551,42.3286998 18.6593842,40.7753058 L9,44.3517245 C11.7547133,48.2532723 15.4395895,51.3600603 19.7326491,53.383085 C33.541991,59.8856646 49.9629442,53.8527158 56.4383092,39.9082952 C58.441737,35.5732421 59.300349,30.7685583 58.9068185,26 L49.3189853,29.5041679 Z" id="Path" fill="#FFFFFF"></path>
                            <path d="M51.4819277,18 L43,21.472 C44.5903614,24.6826667 45.3192771,28.3413333 45.0873494,32 L54,28.3413333 C53.7349398,24.7573333 52.9066265,21.248 51.4819277,18" id="Path" fill="#FFFFFF"></path>
                            <path d="M16.962963,27.8120805 C16.9259259,27.2080537 16.962963,26.6040268 17,26 L7,29.2885906 C7.03703704,29.8590604 7.14814815,30.4295302 7.22222222,31 L16.962963,27.8120805 Z" id="Path" fill="#929292"></path>
                            <path d="M59,11.5073529 C58.6969697,10.9926471 58.4276094,10.5147059 58.0909091,10 L49,13.6029412 C49.4040404,14.0441176 49.7744108,14.5220588 50.1111111,15 L59,11.5073529 Z" id="Path" fill="#929292"></path>
                            <path d="M9,43.9103215 C9.75139874,44.9898477 10.5743593,46.0321489 11.4688816,47 L21.9526831,43.0169205 C20.7361327,42.2351946 19.6269251,41.3045685 18.6250601,40.2622673 L9,43.9103215 Z M58.9143449,25 L49.2892849,28.6480541 C49.1819422,30.0998308 48.8956951,31.5516074 48.4663244,32.928934 L58.9501258,28.9458545 C59.0216876,27.605753 59.0216876,26.2656514 58.9143449,25" id="Shape" fill="#929292"></path>
                        </g>
                    </g>
                    <g id="amazon-eks-seeklogo.com" opacity="0.049999997" mask="url(#mask-2)">
                        <g transform="translate(81.170755, 117.000000) rotate(-360.000000) translate(-81.170755, -117.000000) translate(62.670755, 97.000000)" id="g896">
                            <g transform="translate(0.027887, 0.000000)">
                                <g id="g34-Clipped" transform="translate(13.590504, 14.253126)">
                                    <mask id="mask-4" fill="white">
                                        <use xlink:href="#path-3"></use>
                                    </mask>
                                    <use id="path36" fill="#FFFFFF" xlink:href="#path-3"></use>
                                </g>
                                <g id="g50-Clipped" transform="translate(18.387153, 11.411817)">
                                    <mask id="mask-6" fill="white">
                                        <use xlink:href="#path-5"></use>
                                    </mask>
                                    <use id="path52" fill="#FFFFFF" xlink:href="#path-5"></use>
                                </g>
                                <g id="g66-Clipped">
                                    <mask id="mask-8" fill="white">
                                        <use xlink:href="#path-7"></use>
                                    </mask>
                                    <use id="path68" fill="#FFFFFF" xlink:href="#path-7"></use>
                                </g>
                            </g>
                        </g>
                    </g>
                    <g id="amazon-eks-seeklogo.com-copy-10" opacity="0.049999997" mask="url(#mask-2)">
                        <g transform="translate(279.295755, 29.000000) rotate(-360.000000) translate(-279.295755, -29.000000) translate(265.295755, 14.000000)" id="g896">
                            <g transform="translate(0.402887, 0.000000)">
                                <g id="g34-Clipped" transform="translate(10.192878, 10.689845)">
                                    <mask id="mask-10" fill="white">
                                        <use xlink:href="#path-9"></use>
                                    </mask>
                                    <use id="path36" fill="#FFFFFF" xlink:href="#path-9"></use>
                                </g>
                                <g id="g50-Clipped" transform="translate(13.790365, 8.558863)">
                                    <mask id="mask-12" fill="white">
                                        <use xlink:href="#path-11"></use>
                                    </mask>
                                    <use id="path52" fill="#FFFFFF" xlink:href="#path-11"></use>
                                </g>
                                <g id="g66-Clipped">
                                    <mask id="mask-14" fill="white">
                                        <use xlink:href="#path-13"></use>
                                    </mask>
                                    <use id="path68" fill="#FFFFFF" xlink:href="#path-13"></use>
                                </g>
                            </g>
                        </g>
                    </g>
                    <g id="amazon-eks-seeklogo.com-copy-13" opacity="0.049999997" mask="url(#mask-2)">
                        <g transform="translate(-4.704245, 29.000000) rotate(-360.000000) translate(4.704245, -29.000000) translate(-18.704245, 14.000000)" id="g896">
                            <g transform="translate(0.402887, 0.000000)">
                                <g id="g34-Clipped" transform="translate(10.192878, 10.689845)">
                                    <mask id="mask-16" fill="white">
                                        <use xlink:href="#path-15"></use>
                                    </mask>
                                    <use id="path36" fill="#FFFFFF" xlink:href="#path-15"></use>
                                </g>
                                <g id="g50-Clipped" transform="translate(13.790365, 8.558863)">
                                    <mask id="mask-18" fill="white">
                                        <use xlink:href="#path-17"></use>
                                    </mask>
                                    <use id="path52" fill="#FFFFFF" xlink:href="#path-17"></use>
                                </g>
                                <g id="g66-Clipped">
                                    <mask id="mask-20" fill="white">
                                        <use xlink:href="#path-19"></use>
                                    </mask>
                                    <use id="path68" fill="#FFFFFF" xlink:href="#path-19"></use>
                                </g>
                            </g>
                        </g>
                    </g>
                    <g id="amazon-eks-seeklogo.com-copy" opacity="0.0299999993" mask="url(#mask-2)">
                        <g transform="translate(30.670755, 245.000000) rotate(-344.000000) translate(-30.670755, -245.000000) translate(-2.829245, 208.000000)" id="g896">
                            <g transform="translate(0.527887, 0.000000)">
                                <g id="g34-Clipped" transform="translate(25.670952, 27.080940)">
                                    <mask id="mask-22" fill="white">
                                        <use xlink:href="#path-21"></use>
                                    </mask>
                                    <use id="path36" fill="#FFFFFF" xlink:href="#path-21"></use>
                                </g>
                                <g id="g50-Clipped" transform="translate(34.731289, 21.682452)">
                                    <mask id="mask-24" fill="white">
                                        <use xlink:href="#path-23"></use>
                                    </mask>
                                    <use id="path52" fill="#FFFFFF" xlink:href="#path-23"></use>
                                </g>
                                <g id="g66-Clipped">
                                    <mask id="mask-26" fill="white">
                                        <use xlink:href="#path-25"></use>
                                    </mask>
                                    <use id="path68" fill="#FFFFFF" xlink:href="#path-25"></use>
                                </g>
                            </g>
                        </g>
                    </g>
                    <g id="amazon-eks-seeklogo.com-copy-3" opacity="0.0299999993" mask="url(#mask-2)">
                        <g transform="translate(314.670755, 245.000000) rotate(-344.000000) translate(-314.670755, -245.000000) translate(281.170755, 208.000000)" id="g896">
                            <g transform="translate(0.527887, 0.000000)">
                                <g id="g34-Clipped" transform="translate(25.670952, 27.080940)">
                                    <mask id="mask-28" fill="white">
                                        <use xlink:href="#path-27"></use>
                                    </mask>
                                    <use id="path36" fill="#FFFFFF" xlink:href="#path-27"></use>
                                </g>
                                <g id="g50-Clipped" transform="translate(34.731289, 21.682452)">
                                    <mask id="mask-30" fill="white">
                                        <use xlink:href="#path-29"></use>
                                    </mask>
                                    <use id="path52" fill="#FFFFFF" xlink:href="#path-29"></use>
                                </g>
                                <g id="g66-Clipped">
                                    <mask id="mask-32" fill="white">
                                        <use xlink:href="#path-31"></use>
                                    </mask>
                                    <use id="path68" fill="#FFFFFF" xlink:href="#path-31"></use>
                                </g>
                            </g>
                        </g>
                    </g>
                    <path d="M165.698642,331 L165.698642,344 L152.698642,344 L152.698642,331 L165.698642,331 Z M150.698642,331 L150.698642,344 L137.698642,344 L137.698642,331 L150.698642,331 Z M150.698642,316 L150.698642,329 L137.698642,329 L137.698642,316 L150.698642,316 Z M165.698642,316 L165.698642,329 L152.698642,329 L152.698642,316 L165.698642,316 Z" id="Combined-Shape-Copy-6" fill="#FFFFFF" opacity="0.100000001" mask="url(#mask-2)" transform="translate(151.698642, 330.000000) rotate(-360.000000) translate(-151.698642, -330.000000) "></path>
                    <g id="google-copy-4" opacity="0.100000001" mask="url(#mask-2)" fill="#FFFFFF" fill-rule="nonzero">
                        <g transform="translate(3.601858, 287.000000)">
                            <polygon id="Path" points="13.872225 13 19.3981416 15.9046961 19.3981416 17 13.3981416 13.8473757"></polygon>
                            <polygon id="Path" points="8.3981416 13.9744275 1.80419058 18 1.3981416 16.9219455 7.82066727 13"></polygon>
                            <polygon id="Path" points="10.3981416 1 11.3981416 1 11.3981416 8 10.401778 8"></polygon>
                            <path d="M10.9078916,-9.09494702e-13 L0.398141597,6 L0.398141597,18 L10.9078916,24 L21.3981416,18 L21.3981416,6 L10.9078916,-9.09494702e-13 Z M19.1481416,16.6665 L10.9078916,21.3315 L2.6481416,16.6665 L2.6481416,7.335 L10.9078916,2.67 L19.1481416,7.3335 L19.1481416,16.665 L19.1481416,16.6665 Z" id="Shape"></path>
                            <polygon id="Path" points="11.3989276 11 16.3981416 8.49965973 11.3989276 6 6.3981416 8.49965973"></polygon>
                            <polygon id="Path" points="10.3981416 12.6644886 5.3981416 10 5.3981416 15.3333333 10.3957117 18"></polygon>
                            <polygon id="Path" points="11.3981416 12.6659406 11.3981416 18 16.3981416 15.3333333 16.3981416 10"></polygon>
                        </g>
                    </g>
                    <path d="M196.387642,369 L196.388297,374.428571 C196.388297,375.482933 197.204175,376.346737 198.239034,376.423086 L198.388297,376.428571 L233.008986,376.428571 C234.063348,376.428571 234.927152,375.612694 235.003501,374.577834 L235.008986,374.428571 L235.008642,369 L250.698642,369 L250.698642,388 C250.698642,389.656854 249.355496,391 247.698642,391 L183.698642,391 C182.041787,391 180.698642,389.656854 180.698642,388 L180.698642,369 L196.387642,369 Z M250.698642,350 L250.698642,364 L235.008642,364 L235.008642,350 L250.698642,350 Z M247.698642,323 C249.355496,323 250.698642,324.343146 250.698642,326 L250.698642,345 L235.008642,345 L235.008986,339.571429 C235.008986,338.466859 234.113556,337.571429 233.008986,337.571429 L198.388297,337.571429 C197.333935,337.571429 196.470132,338.387306 196.393783,339.422166 L196.388297,339.571429 L196.387642,345 L180.698642,345 L180.698642,326 C180.698642,324.343146 182.041787,323 183.698642,323 L247.698642,323 Z M180.698642,350 L196.387642,350 L196.387642,364 L180.698642,364 L180.698642,350 Z" id="Combined-Shape-Copy-7" fill="#FFFFFF" opacity="0.049999997" mask="url(#mask-2)"></path>
                    <path d="M28.4226416,333 L28.4227796,334.571429 C28.4227796,335.62579 29.2386573,336.489594 30.2735172,336.565943 L30.4227796,336.571429 L42.9745037,336.571429 C44.0288655,336.571429 44.8926688,335.755551 44.969018,334.720691 L44.9745037,334.571429 L44.9736416,333 L51.6986416,333 L51.6986416,340 C51.6986416,341.656854 50.3554959,343 48.6986416,343 L24.6986416,343 C23.0417874,343 21.6986416,341.656854 21.6986416,340 L21.6986416,333 L28.4226416,333 Z M51.6986416,325 L51.6986416,331 L44.9736416,331 L44.9736416,325 L51.6986416,325 Z M48.6986416,313 C50.3554959,313 51.6986416,314.343146 51.6986416,316 L51.6986416,323 L44.9736416,323 L44.9745037,321.428571 C44.9745037,320.324002 44.0790732,319.428571 42.9745037,319.428571 L30.4227796,319.428571 C29.3684178,319.428571 28.5046144,320.244449 28.4282653,321.279309 L28.4227796,321.428571 L28.4226416,323 L21.6986416,323 L21.6986416,316 C21.6986416,314.343146 23.0417874,313 24.6986416,313 L48.6986416,313 Z M21.6986416,325 L28.4226416,325 L28.4226416,331 L21.6986416,331 L21.6986416,325 Z" id="Combined-Shape-Copy-8" fill="#FFFFFF" opacity="0.100000001" mask="url(#mask-2)"></path>
                    <g id="red-hat-openshift-vector-logo-copy-3" opacity="0.049999997" mask="url(#mask-2)" fill-rule="nonzero">
                        <g transform="translate(94.698642, 313.000000) rotate(-315.000000) translate(-94.698642, -313.000000) translate(64.698642, 285.000000)">
                            <path d="M16.7472924,26 L7,29.4690265 C7.14440433,30.9911504 7.39711191,32.5132743 7.75812274,34 L17,30.7079646 C16.7111913,29.1504425 16.6389892,27.5929204 16.7472924,26" id="Path" fill="#FFFFFF"></path>
                            <path d="M60,14.3707317 C59.264881,12.8487805 58.4136905,11.3658537 57.4464286,10 L47,13.8243902 C48.1994048,15.0731707 49.2440476,16.4780488 50.0565476,18 L60,14.3707317 Z" id="Path" fill="#FFFFFF"></path>
                            <path d="M39.1359187,11.4379151 C41.0653908,12.3750301 42.851939,13.636531 44.3526395,15.186375 L54,11.6541724 C45.1744517,-0.852708026 27.9521268,-3.73613868 15.553482,5.16645347 C7.65693884,10.8251861 3.33349212,20.2684215 4.08384238,30 L13.6954719,26.4317546 C14.4100912,16.5199617 22.9855227,9.05908486 32.8472689,9.77994252 C35.0268578,9.96015694 37.1349847,10.5368431 39.1359187,11.4379151" id="Path" fill="#FFFFFF"></path>
                            <path d="M8.55526992,33 L0,36.4152542 C0.802056555,39.8672316 2.1722365,43.0988701 4.01028278,46 L13,42.4011299 C10.7275064,39.8305085 9.19023136,36.5621469 8.55526992,33" id="Path" fill="#FFFFFF"></path>
                            <path d="M49.3189853,29.5041679 C49.1758833,31.6716944 48.6034753,33.8030955 47.7090879,35.7538693 C43.5233547,44.8213553 32.8622566,48.722903 23.8826068,44.5323517 C21.9149545,43.5930902 20.1619551,42.3286998 18.6593842,40.7753058 L9,44.3517245 C11.7547133,48.2532723 15.4395895,51.3600603 19.7326491,53.383085 C33.541991,59.8856646 49.9629442,53.8527158 56.4383092,39.9082952 C58.441737,35.5732421 59.300349,30.7685583 58.9068185,26 L49.3189853,29.5041679 Z" id="Path" fill="#FFFFFF"></path>
                            <path d="M51.4819277,18 L43,21.472 C44.5903614,24.6826667 45.3192771,28.3413333 45.0873494,32 L54,28.3413333 C53.7349398,24.7573333 52.9066265,21.248 51.4819277,18" id="Path" fill="#FFFFFF"></path>
                            <path d="M16.962963,27.8120805 C16.9259259,27.2080537 16.962963,26.6040268 17,26 L7,29.2885906 C7.03703704,29.8590604 7.14814815,30.4295302 7.22222222,31 L16.962963,27.8120805 Z" id="Path" fill="#929292"></path>
                            <path d="M59,11.5073529 C58.6969697,10.9926471 58.4276094,10.5147059 58.0909091,10 L49,13.6029412 C49.4040404,14.0441176 49.7744108,14.5220588 50.1111111,15 L59,11.5073529 Z" id="Path" fill="#929292"></path>
                            <path d="M9,43.9103215 C9.75139874,44.9898477 10.5743593,46.0321489 11.4688816,47 L21.9526831,43.0169205 C20.7361327,42.2351946 19.6269251,41.3045685 18.6250601,40.2622673 L9,43.9103215 Z M58.9143449,25 L49.2892849,28.6480541 C49.1819422,30.0998308 48.8956951,31.5516074 48.4663244,32.928934 L58.9501258,28.9458545 C59.0216876,27.605753 59.0216876,26.2656514 58.9143449,25" id="Shape" fill="#929292"></path>
                        </g>
                    </g>
                    <g id="amazon-eks-seeklogo.com-copy-11" opacity="0.100000001" mask="url(#mask-2)">
                        <g transform="translate(279.295755, 333.000000) rotate(-360.000000) translate(-279.295755, -333.000000) translate(265.295755, 318.000000)" id="g896">
                            <g transform="translate(0.402887, 0.000000)">
                                <g id="g34-Clipped" transform="translate(10.192878, 10.689845)">
                                    <mask id="mask-34" fill="white">
                                        <use xlink:href="#path-33"></use>
                                    </mask>
                                    <use id="path36" fill="#FFFFFF" xlink:href="#path-33"></use>
                                </g>
                                <g id="g50-Clipped" transform="translate(13.790365, 8.558863)">
                                    <mask id="mask-36" fill="white">
                                        <use xlink:href="#path-35"></use>
                                    </mask>
                                    <use id="path52" fill="#FFFFFF" xlink:href="#path-35"></use>
                                </g>
                                <g id="g66-Clipped">
                                    <mask id="mask-38" fill="white">
                                        <use xlink:href="#path-37"></use>
                                    </mask>
                                    <use id="path68" fill="#FFFFFF" xlink:href="#path-37"></use>
                                </g>
                            </g>
                        </g>
                    </g>
                    <g id="amazon-eks-seeklogo.com-copy-14" opacity="0.100000001" mask="url(#mask-2)">
                        <g transform="translate(-4.704245, 333.000000) rotate(-360.000000) translate(4.704245, -333.000000) translate(-18.704245, 318.000000)" id="g896">
                            <g transform="translate(0.402887, 0.000000)">
                                <g id="g34-Clipped" transform="translate(10.192878, 10.689845)">
                                    <mask id="mask-40" fill="white">
                                        <use xlink:href="#path-39"></use>
                                    </mask>
                                    <use id="path36" fill="#FFFFFF" xlink:href="#path-39"></use>
                                </g>
                                <g id="g50-Clipped" transform="translate(13.790365, 8.558863)">
                                    <mask id="mask-42" fill="white">
                                        <use xlink:href="#path-41"></use>
                                    </mask>
                                    <use id="path52" fill="#FFFFFF" xlink:href="#path-41"></use>
                                </g>
                                <g id="g66-Clipped">
                                    <mask id="mask-44" fill="white">
                                        <use xlink:href="#path-43"></use>
                                    </mask>
                                    <use id="path68" fill="#FFFFFF" xlink:href="#path-43"></use>
                                </g>
                            </g>
                        </g>
                    </g>
                </g>
            </g>
        </g>
    </g>
</svg>